{
  "page": 1,
  "total_results": 10000,
  "total_pages": 500,
  "results": [
    {
      "popularity": 184.696,
      "vote_count": 73,
      "video": false,
      "poster_path": "/AsdB9A2XGalCZVjlyG9tRf03IfW.jpg",
      "id": 516486,
      "adult": false,
      "backdrop_path": "/xXBnM6uSTk6qqCf0SRZKXcga9Ba.jpg",
      "original_language": "en",
      "original_title": "Greyhound",
      "genre_ids": [
        28,
        18,
        10752
      ],
      "title": "Greyhound",
      "vote_average": 6.7,
      "overview": "A first-time captain leads a convoy of allied ships carrying thousands of soldiers across the treacherous waters of the “Black Pit” to the front lines of WW2. With no air cover protection for 5 days, the captain and his convoy must battle the surrounding enemy Nazi U-boats in order to give the allies a chance to win the war.",
      "release_date": "2020-07-10"
    },
    {
      "popularity": 179.305,
      "vote_count": 453,
      "video": false,
      "poster_path": "/cjr4NWURcVN3gW5FlHeabgBHLrY.jpg",
      "id": 547016,
      "adult": false,
      "backdrop_path": "/ydG0xRwMqFzCESJ9TwvPHJM1gkq.jpg",
      "original_language": "en",
      "original_title": "The Old Guard",
      "genre_ids": [
        28,
        14
      ],
      "title": "The Old Guard",
      "vote_average": 7.3,
      "overview": "Four immortal mercenaries who've secretly protected humanity for centuries become targeted for their mysterious powers just as they discover a new immortal.",
      "release_date": "2020-07-10"
    },
    {
      "popularity": 152.206,
      "vote_count": 102,
      "video": false,
      "poster_path": "/hPkqY2EMqWUnFEoedukilIUieVG.jpg",
      "id": 531876,
      "adult": false,
      "backdrop_path": "/n1RohH2VoK1CdVI2fXvcP19dSlm.jpg",
      "original_language": "en",
      "original_title": "The Outpost",
      "genre_ids": [
        28,
        18,
        36,
        10752
      ],
      "title": "The Outpost",
      "vote_average": 7,
      "overview": "A small unit of U.S. soldiers, alone at the remote Combat Outpost Keating, located deep in the valley of three mountains in Afghanistan, battles to defend against an overwhelming force of Taliban fighters in a coordinated attack. The Battle of Kamdesh, as it was known, was the bloodiest American engagement of the Afghan War in 2009 and Bravo Troop 3-61 CAV became one of the most decorated units of the 19-year conflict.",
      "release_date": "2020-06-24"
    },
    {
      "popularity": 180.174,
      "vote_count": 3905,
      "video": false,
      "poster_path": "/xBHvZcjRiWyobQ9kxBhO6B2dtRI.jpg",
      "id": 419704,
      "adult": false,
      "backdrop_path": "/AeDS2MKGFy6QcjgWbJBde0Ga6Hd.jpg",
      "original_language": "en",
      "original_title": "Ad Astra",
      "genre_ids": [
        18,
        878
      ],
      "title": "Ad Astra",
      "vote_average": 6.1,
      "overview": "The near future, a time when both hope and hardships drive humanity to look to the stars and beyond. While a mysterious phenomenon menaces to destroy life on planet Earth, astronaut Roy McBride undertakes a mission across the immensity of space and its many perils to uncover the truth about a lost expedition that decades before boldly faced emptiness and silence in search of the unknown.",
      "release_date": "2019-09-17"
    },
    {
      "popularity": 109.81,
      "vote_count": 204,
      "video": false,
      "poster_path": "/h1B7tW0t399VDjAcWJh8m87469b.jpg",
      "id": 556574,
      "adult": false,
      "backdrop_path": "/uWVkEo9PWHu9algZsiLPi6sRU64.jpg",
      "original_language": "en",
      "original_title": "Hamilton",
      "genre_ids": [
        18,
        36,
        10402
      ],
      "title": "Hamilton",
      "vote_average": 8.6,
      "overview": "Presenting the tale of American founding father Alexander Hamilton, this filmed version of the original Broadway smash hit is the story of America then, told by America now.",
      "release_date": "2020-07-03"
    },
    {
      "popularity": 92.741,
      "vote_count": 80,
      "video": false,
      "poster_path": "/GAeK18hkfR6rzlo1vITvQhoEiW.jpg",
      "id": 428045,
      "adult": false,
      "backdrop_path": "/5yiCqzmxYv36GGdc05egCMHedbX.jpg",
      "original_language": "ru",
      "original_title": "Тайна Печати дракона",
      "genre_ids": [
        12,
        14
      ],
      "title": "Journey to China: The Mystery of Iron Mask",
      "vote_average": 5.5,
      "overview": "The Russian Czar Peter the Great commissions Jonathan Green, an English traveller, to map the Far East territories of the Russian Empire. Green sets off on yet another long journey, full of unbelievable adventures, which eventually leads him to China. On his way, the famous cartographer makes breath-taking discoveries, meets mysterious creatures, Chinese princesses, deadly masters of oriental martial arts, and even Lun Van, the King of Dragons, himself. What could be more perilous than looking into the eyes of Viy? Only meeting him again… What will prevail this time — the unflinching scepticism of the scientist or ancient black magic, which has already gained influence over the Far East Lands?",
      "release_date": "2019-08-16"
    },
    {
      "popularity": 76.844,
      "vote_count": 1859,
      "video": false,
      "poster_path": "/oL2YfVznSkKh6tGWR98j3hxSRZ5.jpg",
      "id": 8619,
      "adult": false,
      "backdrop_path": "/m11Mej9vbQqcXWgYrgPboCJ9NUh.jpg",
      "original_language": "en",
      "original_title": "Master and Commander: The Far Side of the World",
      "genre_ids": [
        12,
        18,
        10752
      ],
      "title": "Master and Commander: The Far Side of the World",
      "vote_average": 7,
      "overview": "After an abrupt and violent encounter with a French warship inflicts severe damage upon his ship, a captain of the British Royal Navy begins a chase over two oceans to capture or destroy the enemy, though he must weigh his commitment to duty and ferocious pursuit of glory against the safety of his devoted crew, including the ship's thoughtful surgeon, his best friend.",
      "release_date": "2003-11-14"
    },
    {
      "popularity": 107.86,
      "vote_count": 17431,
      "video": false,
      "poster_path": "/wuMc08IPKEatf9rnMNXvIDxqP4W.jpg",
      "id": 671,
      "adult": false,
      "backdrop_path": "/hziiv14OpD73u9gAak4XDDfBKa2.jpg",
      "original_language": "en",
      "original_title": "Harry Potter and the Philosopher's Stone",
      "genre_ids": [
        12,
        14,
        10751
      ],
      "title": "Harry Potter and the Philosopher's Stone",
      "vote_average": 7.9,
      "overview": "Harry Potter has lived under the stairs at his aunt and uncle's house his whole life. But on his 11th birthday, he learns he's a powerful wizard -- with a place waiting for him at the Hogwarts School of Witchcraft and Wizardry. As he learns to harness his newfound powers with the help of the school's kindly headmaster, Harry uncovers the truth about his parents' deaths -- and about the villain who's to blame.",
      "release_date": "2001-11-16"
    },
    {
      "popularity": 85.275,
      "vote_count": 158,
      "video": false,
      "poster_path": "/hoUzSMxGu4Bm73EvH6B3iceFwW8.jpg",
      "id": 706510,
      "adult": false,
      "backdrop_path": "/k8H6Qp4uJ9WHArPQwDqCaW9g3Sj.jpg",
      "original_language": "en",
      "original_title": "Desperados",
      "genre_ids": [
        35,
        10749
      ],
      "title": "Desperados",
      "vote_average": 6.5,
      "overview": "A panicked young woman and her two best friends fly to Mexico to delete a ranting email she sent to her new boyfriend. On arrival, they run into her former beau, who soon gets caught up in their frantic scheme.",
      "release_date": "2020-07-03"
    },
    {
      "popularity": 88.163,
      "vote_count": 622,
      "video": false,
      "poster_path": "/tI8ocADh22GtQFV28vGHaBZVb0U.jpg",
      "id": 475430,
      "adult": false,
      "backdrop_path": "/o0F8xAt8YuEm5mEZviX5pEFC12y.jpg",
      "original_language": "en",
      "original_title": "Artemis Fowl",
      "genre_ids": [
        12,
        14,
        878,
        10751
      ],
      "title": "Artemis Fowl",
      "vote_average": 5.8,
      "overview": "Artemis Fowl is a 12-year-old genius and descendant of a long line of criminal masterminds. He soon finds himself in an epic battle against a race of powerful underground fairies who may be behind his father's disappearance.",
      "release_date": "2020-06-12"
    },
    {
      "popularity": 125.042,
      "vote_count": 4396,
      "video": false,
      "poster_path": "/m5h3NtZ2ZfryIHl1MvatmANvIqQ.jpg",
      "id": 49017,
      "adult": false,
      "backdrop_path": "/f02FFv77Rh62633YEjimv7C6JM3.jpg",
      "original_language": "en",
      "original_title": "Dracula Untold",
      "genre_ids": [
        28,
        18,
        14,
        27,
        10752
      ],
      "title": "Dracula Untold",
      "vote_average": 6.3,
      "overview": "Vlad Tepes is a great hero, but when he learns the Sultan is preparing for battle and needs to form an army of 1,000 boys, he vows to find a way to protect his family. Vlad turns to dark forces in order to get the power to destroy his enemies and agrees to go from hero to monster as he's turned into the mythological vampire, Dracula.",
      "release_date": "2014-10-01"
    },
    {
      "popularity": 80.225,
      "vote_count": 22990,
      "video": false,
      "poster_path": "/gEU2QniE6E77NI6lCU6MxlNBvIx.jpg",
      "id": 157336,
      "adult": false,
      "backdrop_path": "/xJHokMbljvjADYdit5fK5VQsXEG.jpg",
      "original_language": "en",
      "original_title": "Interstellar",
      "genre_ids": [
        12,
        18,
        878
      ],
      "title": "Interstellar",
      "vote_average": 8.3,
      "overview": "The adventures of a group of explorers who make use of a newly discovered wormhole to surpass the limitations on human space travel and conquer the vast distances involved in an interstellar voyage.",
      "release_date": "2014-11-05"
    },
    {
      "popularity": 92.928,
      "vote_count": 5026,
      "video": false,
      "poster_path": "/aQvJ5WPzZgYVDrxLX4R6cLJCEaQ.jpg",
      "id": 454626,
      "adult": false,
      "backdrop_path": "/stmYfCUGd8Iy6kAMBr6AmWqx8Bq.jpg",
      "original_language": "en",
      "original_title": "Sonic the Hedgehog",
      "genre_ids": [
        28,
        35,
        878,
        10751
      ],
      "title": "Sonic the Hedgehog",
      "vote_average": 7.5,
      "overview": "Based on the global blockbuster videogame franchise from Sega, Sonic the Hedgehog tells the story of the world’s speediest hedgehog as he embraces his new home on Earth. In this live-action adventure comedy, Sonic and his new best friend team up to defend the planet from the evil genius Dr. Robotnik and his plans for world domination.",
      "release_date": "2020-02-12"
    },
    {
      "popularity": 76.814,
      "vote_count": 13670,
      "video": false,
      "poster_path": "/udDclJoHjfjb8Ekgsd4FDteOkCU.jpg",
      "id": 475557,
      "adult": false,
      "backdrop_path": "/n6bUvigpRFqSwmPp1m2YADdbRBc.jpg",
      "original_language": "en",
      "original_title": "Joker",
      "genre_ids": [
        80,
        18,
        53
      ],
      "title": "Joker",
      "vote_average": 8.2,
      "overview": "During the 1980s, a failed stand-up comedian is driven insane and turns to a life of crime and chaos in Gotham City while becoming an infamous psychopathic crime figure.",
      "release_date": "2019-10-02"
    },
    {
      "popularity": 74.577,
      "vote_count": 26427,
      "video": false,
      "poster_path": "/9gk7adHYeDvHkCSEqAvQNLV5Uge.jpg",
      "id": 27205,
      "adult": false,
      "backdrop_path": "/s3TBrRGB1iav7gFOCNx3H31MoES.jpg",
      "original_language": "en",
      "original_title": "Inception",
      "genre_ids": [
        28,
        12,
        878
      ],
      "title": "Inception",
      "vote_average": 8.3,
      "overview": "Cobb, a skilled thief who commits corporate espionage by infiltrating the subconscious of his targets is offered a chance to regain his old life as payment for a task considered to be impossible: \"inception\", the implantation of another person's idea into a target's subconscious.",
      "release_date": "2010-07-15"
    },
    {
      "popularity": 48.627,
      "vote_count": 3664,
      "video": false,
      "poster_path": "/xvx4Yhf0DVH8G4LzNISpMfFBDy2.jpg",
      "id": 166428,
      "adult": false,
      "backdrop_path": "/lFwykSz3Ykj1Q3JXJURnGUTNf1o.jpg",
      "original_language": "en",
      "original_title": "How to Train Your Dragon: The Hidden World",
      "genre_ids": [
        12,
        16,
        10751
      ],
      "title": "How to Train Your Dragon: The Hidden World",
      "vote_average": 7.8,
      "overview": "As Hiccup fulfills his dream of creating a peaceful dragon utopia, Toothless’ discovery of an untamed, elusive mate draws the Night Fury away. When danger mounts at home and Hiccup’s reign as village chief is tested, both dragon and rider must make impossible decisions to save their kind.",
      "release_date": "2019-01-03"
    },
    {
      "popularity": 84.339,
      "vote_count": 8329,
      "video": false,
      "poster_path": "/7IiTTgloJzvGI1TAYymCfbfl3vT.jpg",
      "id": 496243,
      "adult": false,
      "backdrop_path": "/ApiBzeaa95TNYliSbQ8pJv4Fje7.jpg",
      "original_language": "ko",
      "original_title": "기생충",
      "genre_ids": [
        35,
        18,
        53
      ],
      "title": "Parasite",
      "vote_average": 8.5,
      "overview": "All unemployed, Ki-taek's family takes peculiar interest in the wealthy and glamorous Parks for their livelihood until they get entangled in an unexpected incident.",
      "release_date": "2019-05-30"
    },
    {
      "popularity": 84.959,
      "vote_count": 4927,
      "video": false,
      "poster_path": "/h4VB6m0RwcicVEZvzftYZyKXs6K.jpg",
      "id": 495764,
      "adult": false,
      "backdrop_path": "/9xNOiv6DZZjH7ABoUUDP0ZynouU.jpg",
      "original_language": "en",
      "original_title": "Birds of Prey (and the Fantabulous Emancipation of One Harley Quinn)",
      "genre_ids": [
        28,
        35,
        80,
        18
      ],
      "title": "Birds of Prey (and the Fantabulous Emancipation of One Harley Quinn)",
      "vote_average": 7.2,
      "overview": "Harley Quinn joins forces with a singer, an assassin and a police detective to help a young girl who had a hit placed on her after she stole a rare diamond from a crime lord.",
      "release_date": "2020-02-05"
    },
    {
      "popularity": 72.807,
      "vote_count": 18874,
      "video": false,
      "poster_path": "/7WsyChQLEftFiDOVTGkv3hFpyyt.jpg",
      "id": 299536,
      "adult": false,
      "backdrop_path": "/lmZFxXgJE3vgrciwuDib0N8CfQo.jpg",
      "original_language": "en",
      "original_title": "Avengers: Infinity War",
      "genre_ids": [
        28,
        12,
        878
      ],
      "title": "Avengers: Infinity War",
      "vote_average": 8.3,
      "overview": "As the Avengers and their allies have continued to protect the world from threats too large for any one hero to handle, a new danger has emerged from the cosmic shadows: Thanos. A despot of intergalactic infamy, his goal is to collect all six Infinity Stones, artifacts of unimaginable power, and use them to inflict his twisted will on all of reality. Everything the Avengers have fought for has led up to this moment - the fate of Earth and existence itself has never been more uncertain.",
      "release_date": "2018-04-25"
    },
    {
      "popularity": 60.922,
      "vote_count": 10020,
      "video": false,
      "poster_path": "/xT98tLqatZPQApyRmlPL12LtiWp.jpg",
      "id": 122917,
      "adult": false,
      "backdrop_path": "/bVmSXNgH1gpHYTDyF9Q826YwJT5.jpg",
      "original_language": "en",
      "original_title": "The Hobbit: The Battle of the Five Armies",
      "genre_ids": [
        28,
        12,
        14
      ],
      "title": "The Hobbit: The Battle of the Five Armies",
      "vote_average": 7.3,
      "overview": "Immediately after the events of The Desolation of Smaug, Bilbo and the dwarves try to defend Erebor's mountain of treasure from others who claim it: the men of the ruined Laketown and the elves of Mirkwood. Meanwhile an army of Orcs led by Azog the Defiler is marching on Erebor, fueled by the rise of the dark lord Sauron. Dwarves, elves and men must unite, and the hope for Middle-Earth falls into Bilbo's hands.",
      "release_date": "2014-12-10"
    }
  ]
}